{
	"name": "dependabot-dev",
	"workspaceFolder": "/home/dependabot/app",
	"service": "dependabot",
	"shutdownAction": "stopCompose",
	"dockerComposeFile": "docker-compose.yml",
	"postCreateCommand": "bash ${containerWorkspaceFolder}/.devcontainer/setup.sh ${containerWorkspaceFolder}",
	"customizations": {
		"vscode": {
			"extensions": [
				"castwide.solargraph",
				"shopify.ruby-lsp",
				"ms-azuretools.vscode-docker",
				"ms-playwright.playwright",
				"kaiwood.endwise"
			],
			"settings": {
				"terminal.integrated.profiles.linux": {
					"bash": {
						"path": "bash",
						"icon": "terminal-bash"
					}
				},
				"terminal.integrated.defaultProfile.linux": "bash",
				"solargraph.useBundler": true,
				"solargraph.externalServer": {
					"host": "localhost",
					"port": 7658
				}
			}
		}
	}
}
